Google Data Analytics Professional Certificate - Project
…
# total NA is 4617, look LATER3
# "ride_length" is numeric now 

ride_length has negatives. Lets troubleshoot whats wrong:

temp1 <- filter(all_trips, ride_length < 0)
count(temp1, start_station_name, sort=TRUE)

## # A tibble: 63 x 2
##    start_station_name               n
##    <chr>                        <int>
##  1 Halsted St & Dickens Ave        32
##  2 <NA>                            20
##  3 Clark St & Newport St            6
##  4 Dayton St & North Ave            5
##  5 New St & Illinois St             5
##  6 Orleans St & Hubbard St          4
##  7 Clybourn Ave & Division St       3
##  8 Damen Ave & Clybourn Ave         3
##  9 Milwaukee Ave & Wabansia Ave     3
## 10 Sheffield Ave & Waveland Ave     3
## # ... with 53 more rows

count(temp1, end_station_name, sort=TRUE)

## # A tibble: 69 x 2
##    end_station_name               n
##    <chr>                      <int>
##  1 Halsted St & Dickens Ave      30
##  2 <NA>                          19
##  3 Dayton St & North Ave          5
##  4 Racine Ave & Fullerton Ave     5
##  5 Michigan Ave & 8th St          4
##  6 Clybourn Ave & Division St     3
##  7 Damen Ave & Clybourn Ave       3
##  8 Leavitt St & Division St       3
##  9 Broadway & Belmont Ave         2
## 10 Broadway & Sheridan Rd         2
## # ... with 59 more rows
…
